-------------------------------------------------------------------------------
Test set: krkm.pz.ListQTest
-------------------------------------------------------------------------------
Tests run: 7, Failures: 0, Errors: 0, Skipped: 0, Time elapsed: 0.06 s - in krkm.pz.ListQTest
